Final Project, Winter 2024
…
    )
  )

Senior_chunks

# A tibble: 158 × 22
   `District Name` `District Code` In-District Expendit…¹ Total In-district FT…²
   <chr>                     <dbl>                  <dbl>                  <dbl>
 1 Acton-Boxborou…         6000000              91293992.                  5219.
 2 Advanced Math …         4300000              16072974.                   964.
 3 Amherst-Pelham          6050000              30276466                   1265.
 4 Andover                   90000             111233153                   5588.
 5 Arlington                100000              97116944.                  5740.
 6 Ashland                  140000              41552193.                  2755.
 7 Assabet Valley…         8010000              28530789.                  1152.
 8 Attleboro                160000              91035634.                  5904.
 9 Auburn                   170000              37360958.                  2509.
10 Ayer Shirley S…         6160000              28878193.                  1596.
# ℹ 148 more rows
# ℹ abbreviated names: ¹​`In-District Expenditures`, ²​`Total In-district FTEs`
# ℹ 18 more variables: `In-District Expenditures per Pupil` <dbl>,
#   `Total Expenditures` <dbl>, `Total Pupil FTEs` <dbl>,
#   total_expenditures_per_pupil <dbl>, CSATestsTaken <dbl>, one_score <dbl>,
#   two_score <dbl>, three_score <dbl>, four_score <dbl>, five_score <dbl>,
#   percent_12 <dbl>, percent_345 <dbl>, Senior_cohort <chr>, …
…
